STAT 545A Assignment 05: Factor and figure management
…
Exercise 1: Explain the value of the here::here package (10%)

Read through the blog post by Malcolm Barrett where he outlines why one should use the here::here package in RStudio projects. Task: In your own words, summarize the value of the here::here package in 250 words or fewer.

ghg <- read_excel(here::here("hw05", "data", "ghgcanada.xlsx"), trim_ws = TRUE)

ghg

## # A tibble: 187 x 16
##    cma    year province Qgasoline   Qng Qelectricity electric_price
##    <chr> <dbl> <chr>        <dbl> <dbl>        <dbl>          <dbl>
##  1 Calg  1997 Alberta      2534. 3316.        6063.           7.13
##  2 Calg  1998 Alberta      2789. 4053.       10761.           7.02
##  3 Calg  1999 Alberta      2557. 3502.        7947.           7.13
##  4 Calg  2000 Alberta      2506. 3383.        9230.           7.58
##  5 Calg  2001 Alberta      2437. 2502.        9358.           8.51
##  6 Calg  2002 Alberta      2878. 3331.        9094.          10.2 
##  7 Calg  2003 Alberta      2415. 2849.        8127.          10.4 
##  8 Calg  2004 Alberta      2275. 3162.        9175.           9.62
##  9 Calg  2006 Alberta      2350. 2898.        9714.          10.8 
## 10 Calg  2007 Alberta      2537. 2605.        7997.          12.5 
## #  with 177 more rows, and 9 more variables: gas_price <dbl>,
## #   p_reggasoline_SSFS <dbl>, gasemi <dbl>, elecemi <dbl>, ngemi <dbl>,
## #   income <dbl>, avhhsi <dbl>, age <dbl>, hdd <dbl>
…
