STAT 545A Assignment 03: dplyr/ggplot2 Part II
…
Task Option 5

How is life expectancy changing over time on different continents?

To answer this question I simply calculated the continent yearly average and median Life Expectancy.

gapminder %>%
    group_by(continent, year) %>%
    summarise(median_lifeExp=median(lifeExp),
              mean_lifeExp=mean(lifeExp)) 

## # A tibble: 60 x 4
## # Groups:   continent [5]
##    continent  year median_lifeExp mean_lifeExp
##    <fct>     <int>          <dbl>        <dbl>
##  1 Africa     1952           38.8         39.1
##  2 Africa     1957           40.6         41.3
##  3 Africa     1962           42.6         43.3
##  4 Africa     1967           44.7         45.3
##  5 Africa     1972           47.0         47.5
##  6 Africa     1977           49.3         49.6
##  7 Africa     1982           50.8         51.6
##  8 Africa     1987           51.6         53.3
##  9 Africa     1992           52.4         53.6
## 10 Africa     1997           52.8         53.6
## #  with 50 more rows
…
